…
    ## # A tibble: 8 × 5
    ##   ward                yes    no total pct_yes
    ##   <fct>             <dbl> <dbl> <dbl>   <dbl>
    ## 1 WARD 1             3703  2394  6097    60.7
    ## 2 WARD 2             4350  2761  7111    61.2
    ## 3 WARD 3             7774  5361 13135    59.2
    ## 4 WARD 4             6366  2719  9085    70.1
    ## 5 WARD 5             2984  2291  5275    56.6
    ## 6 WARD 6             1555  1475  3030    51.3
    ## 7 WARD 7             2181  2123  4304    50.7
    ## 8 Candidate Totals: 28913 19124 48037    60.2

\#Table 2. Saint Paul Question 1 Results by Ward/Precinct

    ## # A tibble: 87 × 6
    ##    ward   precinct      yes    no total pct_yes
    ##    <chr>  <chr>       <dbl> <dbl> <dbl>   <dbl>
    ##  1 WARD 1 PRECINCT 1     45    13    58    77.6
    ##  2 WARD 1 PRECINCT 2    645   492  1137    56.7
    ##  3 WARD 1 PRECINCT 3    209   114   323    64.7
    ##  4 WARD 1 PRECINCT 4    283   155   438    64.6
    ##  5 WARD 1 PRECINCT 5    188   119   307    61.2
    ##  6 WARD 1 PRECINCT 6    198   102   300    66  
    ##  7 WARD 1 PRECINCT 7    688   393  1081    63.6
    ##  8 WARD 1 PRECINCT 8    318   159   477    66.7
    ##  9 WARD 1 PRECINCT 9    165   125   290    56.9
    ## 10 WARD 1 PRECINCT 10   602   490  1092    55.1
    ## # ℹ 77 more rows
…
